{
  "annotations": {
    "list": [
      {
        "builtIn": 1,
        "datasource": {
          "type": "grafana",
          "uid": "-- Grafana --"
        },
        "enable": true,
        "hide": true,
        "iconColor": "rgba(0, 211, 255, 1)",
        "name": "Annotations & Alerts",
        "target": {
          "limit": 100,
          "matchAny": false,
          "tags": [],
          "type": "dashboard"
        },
        "type": "dashboard"
      }
    ]
  },
  "editable": true,
  "fiscalYearStartMonth": 0,
  "graphTooltip": 2,
  "id": 7,
  "links": [],
  "liveNow": true,
  "panels": [
    {
      "datasource": {
        "type": "datasource",
        "uid": "-- Mixed --"
      },
      "description": "",
      "fieldConfig": {
        "defaults": {
          "mappings": [],
          "thresholds": {
            "mode": "absolute",
            "steps": [
              {
                "color": "green",
                "value": null
              },
              {
                "color": "red",
                "value": 80
              }
            ]
          },
          "unit": "string"
        },
        "overrides": []
      },
      "gridPos": {
        "h": 5,
        "w": 24,
        "x": 0,
        "y": 0
      },
      "id": 8,
      "options": {
        "colorMode": "value",
        "graphMode": "none",
        "justifyMode": "auto",
        "orientation": "auto",
        "reduceOptions": {
          "calcs": [
            "lastNotNull"
          ],
          "fields": "/.*/",
          "values": false
        },
        "text": {
          "titleSize": 25,
          "valueSize": 40
        },
        "textMode": "value_and_name"
      },
      "pluginVersion": "9.2.4",
      "targets": [
        {
          "datasource": {
            "type": "influxdb",
            "uid": "P951FEA4DE68E13C5"
          },
          "query": "import \"array\"\njob = ${job:json}\n\narray.from(rows: [{total: length(arr: job), \"drivers used by\": display(v: job)}])\n\n",
          "refId": "A"
        }
      ],
      "title": "Comparing",
      "type": "stat"
    },
    {
      "collapsed": false,
      "gridPos": {
        "h": 1,
        "w": 24,
        "x": 0,
        "y": 5
      },
      "id": 6,
      "panels": [],
      "repeat": "trace",
      "repeatDirection": "h",
      "title": "${job:text}: ${trace}",
      "type": "row"
    },
    {
      "datasource": {
        "type": "influxdb",
        "uid": "InfluxDB"
      },
      "description": "",
      "fieldConfig": {
        "defaults": {
          "color": {
            "mode": "palette-classic"
          },
          "custom": {
            "axisCenteredZero": false,
            "axisColorMode": "text",
            "axisLabel": "FPS",
            "axisPlacement": "auto",
            "barAlignment": 0,
            "drawStyle": "line",
            "fillOpacity": 0,
            "gradientMode": "opacity",
            "hideFrom": {
              "legend": false,
              "tooltip": false,
              "viz": false
            },
            "lineInterpolation": "smooth",
            "lineStyle": {
              "fill": "solid"
            },
            "lineWidth": 0,
            "pointSize": 4,
            "scaleDistribution": {
              "type": "linear"
            },
            "showPoints": "never",
            "spanNulls": true,
            "stacking": {
              "group": "A",
              "mode": "none"
            },
            "thresholdsStyle": {
              "mode": "off"
            }
          },
          "decimals": 1,
          "links": [
            {
              "title": "Job link",
              "url": "https://gitlab.freedesktop.org/${__field.labels.project_path}/-/jobs/${__field.labels.job_id}"
            },
            {
              "title": "Pipeline link",
              "url": "https://gitlab.freedesktop.org/${__field.labels.project_path}/-/pipelines/${__field.labels.pipeline_id}"
            }
          ],
          "mappings": [
            {
              "options": {
                "NaN": {
                  "color": "red",
                  "index": 0,
                  "text": "0"
                }
              },
              "type": "value"
            }
          ],
          "thresholds": {
            "mode": "absolute",
            "steps": [
              {
                "color": "green",
                "value": null
              }
            ]
          },
          "unit": "none"
        },
        "overrides": [
          {
            "matcher": {
              "id": "byName",
              "options": "max"
            },
            "properties": [
              {
                "id": "custom.fillBelowTo",
                "value": "min"
              }
            ]
          },
          {
            "matcher": {
              "id": "byName",
              "options": "real"
            },
            "properties": [
              {
                "id": "custom.showPoints",
                "value": "always"
              },
              {
                "id": "custom.pointSize",
                "value": 8
              },
              {
                "id": "displayName",
                "value": "${__field.labels}"
              }
            ]
          },
          {
            "matcher": {
              "id": "byName",
              "options": "median"
            },
            "properties": [
              {
                "id": "custom.lineWidth",
                "value": 2
              }
            ]
          }
        ]
      },
      "gridPos": {
        "h": 44,
        "w": 12,
        "x": 0,
        "y": 6
      },
      "id": 2,
      "links": [
        {
          "targetBlank": true,
          "title": "Show Details",
          "url": "https://grafana.freedesktop.org/d/oVwmipv4z/detailed-view-for-mesa-driver-performance?${__all_variables}"
        }
      ],
      "options": {
        "legend": {
          "calcs": [],
          "displayMode": "list",
          "placement": "bottom",
          "showLegend": false
        },
        "tooltip": {
          "mode": "single",
          "sort": "none"
        }
      },
      "repeat": "job",
      "repeatDirection": "h",
      "targets": [
        {
          "datasource": {
            "type": "influxdb",
            "uid": "InfluxDB"
          },
          "dsType": "influxdb",
          "query": "import \"math\"\nimport \"influxdata/influxdb/schema\"\nimport \"experimental\"\n\ntrace = \"${trace}\"\njob = \"${job}\"\nrunner = \"${runner}\"\n// Go to the past to bring enough values to feed initial moving average values\nstart_time = experimental.subDuration(d: ${window_size}d, from: v.timeRangeStart)\nwindowPeriod = v.windowPeriod\nwindow_size = ${window_size}\nmovingAverageFn = ${movingAverageFn}\n\nexact_mean = (tables=<-, column) => tables\n    |> median(method: \"exact_selector\", column: column)\n\nns_to_fps = (tables=<-) => tables\n    |> map(\n        fn: (r) => ({r with\n            frame_time: 1000000000.0 / float(v: r.frame_time),\n        }),\n    )\n\nbaseline = from(bucket: \"mesa-perf-v2\")\n    |> range(start: start_time, stop: v.timeRangeStop)\n    |> filter(fn: (r) => r._measurement == \"frame_time\" and r.runner_tag == runner and r.trace_name == trace and r.job_name == job)\n    |> schema.fieldsAsCols()\n    |> ns_to_fps()\n    |> rename(columns: {frame_time: \"_value\"})\n\nsmooth_graph = (tables=<-, fn, column_name) => tables\n    |> group(columns: [\"runner_tag\"])\n    |> aggregateWindow(every: windowPeriod, fn: fn, createEmpty: false)\n    |> movingAverageFn(n: window_size)\n    |> fill(usePrevious: true)\n    |> keep(columns: [\"_time\", \"_value\"])\n    |> rename(columns: {_value: column_name})\n    |> yield(name: column_name)\n\nreal = baseline\n    |> aggregateWindow(every: windowPeriod, fn: exact_mean, createEmpty: false)\n    |> drop(columns: [\"_start\", \"_stop\", \"commit_sha\", \"job_name\", \"trace_name\", \"runner_tag\"])\n    |> group(columns: [\"_time\", \"_value\"], mode: \"except\")\n    |> rename(columns: {_value: \"real\"})\n    |> yield(name: \"real\")\n\nmedi = baseline\n    |> smooth_graph(fn: exact_mean, column_name: \"median\")\n\nmini = baseline\n    |> smooth_graph(fn: min, column_name: \"min\")\n\nmaxi = baseline\n    |> smooth_graph(fn: max, column_name: \"max\")",
          "rawQuery": true,
          "refId": "A"
        }
      ],
      "title": "${job}",
      "transformations": [],
      "transparent": true,
      "type": "timeseries"
    }
  ],
  "refresh": false,
  "schemaVersion": 37,
  "style": "dark",
  "tags": [
    "mesa"
  ],
  "templating": {
    "list": [
      {
        "current": {
          "selected": false,
          "text": "kaufmansAMA",
          "value": "kaufmansAMA"
        },
        "hide": 0,
        "includeAll": false,
        "multi": false,
        "name": "movingAverageFn",
        "options": [
          {
            "selected": true,
            "text": "kaufmansAMA",
            "value": "kaufmansAMA"
          },
          {
            "selected": false,
            "text": "movingAverage",
            "value": "movingAverage"
          },
          {
            "selected": false,
            "text": "exponentialMovingAverage",
            "value": "exponentialMovingAverage"
          },
          {
            "selected": false,
            "text": "doubleEMA",
            "value": "doubleEMA"
          },
          {
            "selected": false,
            "text": "tripleEMA",
            "value": "tripleEMA"
          }
        ],
        "query": "kaufmansAMA, movingAverage, exponentialMovingAverage, doubleEMA, tripleEMA",
        "queryValue": "",
        "skipUrlSync": false,
        "type": "custom"
      },
      {
        "current": {
          "selected": true,
          "text": "20",
          "value": "20"
        },
        "hide": 0,
        "label": "Moving Average window size",
        "name": "window_size",
        "options": [
          {
            "selected": true,
            "text": "20",
            "value": "20"
          }
        ],
        "query": "20",
        "skipUrlSync": false,
        "type": "textbox"
      },
      {
        "current": {
          "selected": false,
          "text": "mesa-ci-x86-64-lava-sc7180-trogdor-lazor-limozeen",
          "value": "mesa-ci-x86-64-lava-sc7180-trogdor-lazor-limozeen"
        },
        "datasource": {
          "type": "influxdb",
          "uid": "InfluxDB"
        },
        "definition": "import \"influxdata/influxdb/schema\"\nimport \"strings\"\n\nschema.tagValues(\n    bucket: \"mesa-perf-v2\",\n    tag: \"runner_tag\",\n)",
        "hide": 0,
        "includeAll": false,
        "multi": false,
        "name": "runner",
        "options": [],
        "query": "import \"influxdata/influxdb/schema\"\nimport \"strings\"\n\nschema.tagValues(\n    bucket: \"mesa-perf-v2\",\n    tag: \"runner_tag\",\n)",
        "refresh": 1,
        "regex": "",
        "skipUrlSync": false,
        "sort": 0,
        "type": "query"
      },
      {
        "allFormat": "glob",
        "current": {
          "selected": true,
          "text": "humus/HDR-v2.trace",
          "value": "humus/HDR-v2.trace"
        },
        "datasource": {
          "type": "influxdb",
          "uid": "InfluxDB"
        },
        "definition": "import \"array\"\njob = ${job:json}\n\nrunner = \"${runner}\"\n\nfrom(bucket: \"mesa-perf-v2\")\n|> range(start: v.timeRangeStart, stop: v.timeRangeStop)\n|> filter(fn: (r) => r._field == \"job_id\" and r.runner_tag == runner)\n|> keep(columns: [\"job_name\", \"trace_name\"])\n|> group(columns: [\"trace_name\"])\n|> unique(column: \"job_name\")\n|> filter(fn: (r) => contains(value: r.job_name, set: job))\n|> count(column: \"job_name\")\n|> filter(fn: (r) => r.job_name >= 1)\n|> map(fn: (r) => ({_value: r.trace_name}))\n",
        "hide": 0,
        "includeAll": false,
        "multi": false,
        "name": "trace",
        "options": [],
        "query": "import \"array\"\njob = ${job:json}\n\nrunner = \"${runner}\"\n\nfrom(bucket: \"mesa-perf-v2\")\n|> range(start: v.timeRangeStart, stop: v.timeRangeStop)\n|> filter(fn: (r) => r._field == \"job_id\" and r.runner_tag == runner)\n|> keep(columns: [\"job_name\", \"trace_name\"])\n|> group(columns: [\"trace_name\"])\n|> unique(column: \"job_name\")\n|> filter(fn: (r) => contains(value: r.job_name, set: job))\n|> count(column: \"job_name\")\n|> filter(fn: (r) => r.job_name >= 1)\n|> map(fn: (r) => ({_value: r.trace_name}))\n",
        "refresh": 2,
        "regex": "",
        "skipUrlSync": false,
        "sort": 1,
        "type": "query"
      },
      {
        "allFormat": "glob",
        "current": {
          "selected": true,
          "text": [
            "All"
          ],
          "value": [
            "$__all"
          ]
        },
        "datasource": {
          "type": "influxdb",
          "uid": "InfluxDB"
        },
        "definition": "import \"influxdata/influxdb/schema\"\nimport \"strings\"\n\nrunner = \"${runner}\"\n\nfrom(bucket: \"mesa-perf-v2\")\n|> range(start: v.timeRangeStart, stop: v.timeRangeStop)\n  |> filter(fn: (r) => r.runner_tag == runner)\n  |> group(columns: [\"job_name\"], mode:\"by\")\n  |> count(column: \"_value\")\n  |> map(fn: (r) => ({ r : r.job_name }))",
        "hide": 0,
        "includeAll": true,
        "multi": true,
        "name": "job",
        "options": [],
        "query": "import \"influxdata/influxdb/schema\"\nimport \"strings\"\n\nrunner = \"${runner}\"\n\nfrom(bucket: \"mesa-perf-v2\")\n|> range(start: v.timeRangeStart, stop: v.timeRangeStop)\n  |> filter(fn: (r) => r.runner_tag == runner)\n  |> group(columns: [\"job_name\"], mode:\"by\")\n  |> count(column: \"_value\")\n  |> map(fn: (r) => ({ r : r.job_name }))",
        "refresh": 2,
        "regex": "",
        "skipUrlSync": false,
        "sort": 0,
        "type": "query"
      }
    ]
  },
  "time": {
    "from": "now-7d",
    "to": "now"
  },
  "timepicker": {},
  "timezone": "",
  "title": "Performance Driver Comparison",
  "uid": "Ge8lBATVk",
  "version": 23,
  "weekStart": ""
}